{
  "name": "AddressesAll",
  "description": "",
  "status": "visible",
  "ts": {
    "abstractions": [
      {
        "name": "ts.ActorJs.Addresses.AddressesPositiveAll",
        "execution": "",
        "iterations": ""
      },
      {
        "name": "ts.ActorJs.Addresses.AddressesNegativeAll",
        "execution": "",
        "iterations": ""
      },
      {
        "name": "ts.ActorJs.Addresses.AddressesMiscellaneousAll",
        "execution": "",
        "iterations": ""
      }
    ]
  }
}