{
  "name": "LogSendLine",
  "description": "",
  "status": "visible",
  "tc": {
    "settings": [],
    "actors": [
      {
        "name": "Actors-global.stack.stacks.socket.SocketLogOrig",
        "node": "",
        "type": "orig",
        "phase": "",
        "execution": "",
        "src": "testSrc1",
        "dst": "testSrv1",
        "srv": "",
        "testData": "",
        "verification": ""
      },
      {
        "name": "Actors-global.stack.stacks.socket.SocketLogTerm",
        "node": "",
        "type": "term",
        "phase": "",
        "execution": "",
        "src": "",
        "dst": "",
        "srv": "testSrv1",
        "testData": "",
        "verification": ""
      }
    ],
    "testDataTestCases": [
      {
        "key": "command",
        "value": "sendLine",
        "description": ""
      },
      {
        "key": "data",
        "value": "My send line data",
        "description": ""
      }
    ],
    "testDataIteration": [],
    "verificationTestCases": []
  }
}