{
  "name": "StackPuppeteerPositiveAll",
  "description": "",
  "status": "visible",
  "ts": {
    "abstractions": [
      {
        "name": "tc.Actor.StackPuppeteer.StaticPage1Client0Sut1MockAll",
        "execution": "",
        "iterations": "",
        "_commentOut_": false
      },
      {
        "name": "tc.Actor.StackPuppeteer.StaticPage1Client1Sut0Mock",
        "execution": "",
        "iterations": "",
        "_commentOut_": false
      },
      {
        "name": "tc.Actor.StackPuppeteer.StaticPage1Client1Sut1MockNone",
        "execution": "",
        "iterations": "",
        "_commentOut_": false
      },
      {
        "name": "tc.Actor.StackPuppeteer.StaticPage1Client1Sut2MocksNone",
        "execution": "",
        "iterations": "",
        "_commentOut_": false
      },
      {
        "name": "tc.Actor.StackPuppeteer.StaticPage1Client1Sut1MockImage",
        "execution": "",
        "iterations": "",
        "_commentOut_": false
      },
      {
        "name": "tc.Actor.StackPuppeteer.StaticPage1Client1Sut2MocksImage",
        "execution": "",
        "iterations": "",
        "_commentOut_": false
      },
      {
        "name": "tc.Actor.StackPuppeteer.StaticPage2ClientsSerial2Suts0Mocks",
        "execution": "",
        "iterations": "",
        "_commentOut_": false
      },
      {
        "name": "tc.Actor.StackPuppeteer.StaticPage2ClientsParallel0Suts2Mocks",
        "execution": "",
        "iterations": "",
        "_commentOut_": false
      }
    ]
  }
}