{
  "name": "DocActorApiGetTestDataArrayNumbersC",
  "description": "",
  "status": "visible",
  "tc": {
    "settings": [],
    "actors": [
      {
        "name": "Actors-global.doc.testData.getNumbers.GetTestDataArrayNumbersCOrig",
        "type": "orig",
        "phase": "exec",
        "execution": "",
        "src": "",
        "dst": "",
        "srv": "",
        "testData": "",
        "verification": ""
      }
    ],
    "testDataTestCases": [
      {
        "key": "demoKey1[]",
        "value": "[7, 30]",
        "description": ""
      },
      {
        "key": "demoKey1[]",
        "value": "[16, 0]",
        "description": ""
      },
      {
        "key": "demoKey2",
        "value": "[[9, 0], [17, 30]]",
        "description": ""
      },
      {
        "key": "demoKeyObject",
        "value": "LUNCH",
        "description": ""
      }
    ],
    "testDataIteration": [],
    "verificationTestCases": []
  }
}