[
  {
    "portName": "actorjs-http",
    "sut": "ActorJs",
    "labId": "",
    "userId": "",
    "port": "9005"
  },
  {
    "portName": "actorjs-ws",
    "sut": "ActorJs",
    "labId": "",
    "userId": "",
    "port": "9006"
  },
  {
    "portName": "diameter",
    "sut": "",
    "labId": "",
    "userId": "",
    "port": "3868"
  },
  {
    "portName": "http",
    "sut": "",
    "labId": "",
    "userId": "",
    "port": "80"
  },
  {
    "portName": "https",
    "sut": "",
    "labId": "",
    "userId": "",
    "port": "443"
  },
  {
    "portName": "http3",
    "sut": "",
    "labId": "",
    "userId": "",
    "port": "443"
  },
  {
    "portName": "icap",
    "sut": "",
    "labId": "",
    "userId": "",
    "port": "1344"
  },
  {
    "portName": "mqtt",
    "sut": "",
    "labId": "",
    "userId": "",
    "port": "1883"
  },
  {
    "portName": "mqtts",
    "sut": "",
    "labId": "",
    "userId": "",
    "port": "8883"
  },
  {
    "portName": "sip",
    "sut": "",
    "labId": "",
    "userId": "",
    "port": "5060"
  }
]