{
  "name": "StackApiBitByteAll",
  "description": "",
  "status": "visible",
  "ts": {
    "abstractions": [
      {
        "name": "tc.ActorUnitTest.StackApi.GetBit",
        "execution": "",
        "iterations": ""
      },
      {
        "name": "tc.ActorUnitTest.StackApi.GetBits",
        "execution": "",
        "iterations": ""
      },
      {
        "name": "tc.ActorUnitTest.StackApi.SetBit",
        "execution": "",
        "iterations": ""
      },
      {
        "name": "tc.ActorUnitTest.StackApi.SetBits",
        "execution": "",
        "iterations": ""
      },
      {
        "name": "tc.ActorUnitTest.StackApi.SetGetBit",
        "execution": "",
        "iterations": ""
      },
      {
        "name": "tc.ActorUnitTest.StackApi.SetGetBits",
        "execution": "",
        "iterations": ""
      }
    ]
  }
}