{
  "name": "TextFrameJson",
  "description": "",
  "status": "visible",
  "tc": {
    "settings": [],
    "actors": [
      {
        "name": "Actors-global.stack.stacks.websocket.WebsocketFrameTextOrig",
        "node": "",
        "type": "orig",
        "phase": "exec",
        "execution": "",
        "src": "testSrcWs1",
        "dst": "testSrvWs1",
        "srv": "",
        "testData": "",
        "verification": ""
      },
      {
        "name": "Actors-global.stack.stacks.websocket.WebsocketFrameTextTerm",
        "node": "",
        "type": "term",
        "phase": "exec",
        "execution": "",
        "src": "",
        "dst": "",
        "srv": "testSrvWs1",
        "testData": "",
        "verification": ""
      }
    ],
    "testDataTestCases": [
      {
        "key": "ws-text",
        "value": "{\"name\": \"Lars\", \"age\": 23}",
        "description": ""
      }
    ],
    "testDataIteration": [],
    "verificationTestCases": [
      {
        "key": "ws-text",
        "value": "{\"name\": \"Lars\", \"age\": 23}",
        "operation": "",
        "type": "",
        "description": ""
      }
    ]
  }
}