{
  "name": "CIPositiveAll",
  "description": "",
  "status": "visible",
  "ts": {
    "abstractions": [
      {
        "name": "ts.ActorJsRest.Documentation.DocumentationPositiveAll",
        "execution": "",
        "iterations": ""
      },
      {
        "name": "ts.ActorJsRest.TestCases.TestCasesPositiveAll",
        "execution": "",
        "iterations": ""
      }
    ]
  }
}