{
  "name": "WebSegmentStacks",
  "description": "",
  "status": "visible",
  "tc": {
    "settings": [],
    "actors": [
      {
        "name": "Actors-global.stack.stacks.http.flow.HttpGetOkOrig",
        "node": "",
        "type": "orig",
        "phase": "exec",
        "execution": "parallel",
        "src": "testSrc1",
        "dst": "testSrv1",
        "srv": "",
        "testData": "",
        "verification": ""
      },
      {
        "name": "Actors-global.stack.stacks.http.flow.HttpGetOkTerm",
        "node": "",
        "type": "term",
        "phase": "exec",
        "execution": "parallel",
        "src": "",
        "dst": "",
        "srv": "testSrv1",
        "testData": "",
        "verification": ""
      },
      {
        "name": "Actors-global.stack.stacks.icap.flow.IcapRespmodOkOrig",
        "node": "",
        "type": "orig",
        "phase": "exec",
        "execution": "parallel",
        "src": "testSrc2",
        "dst": "testSrv2",
        "srv": "",
        "testData": "",
        "verification": ""
      },
      {
        "name": "Actors-global.stack.stacks.icap.flow.IcapRespmodOkTerm",
        "node": "",
        "type": "term",
        "phase": "exec",
        "execution": "parallel",
        "src": "",
        "dst": "",
        "srv": "testSrv2",
        "testData": "",
        "verification": ""
      }
    ],
    "testDataTestCases": [],
    "testDataIteration": [],
    "verificationTestCases": []
  }
}