{
  "name": "ActorsModalFileNew",
  "description": "",
  "status": "visible",
  "tc": {
    "settings": [],
    "actors": [
      {
        "name": "Actors-global.actorjs.actors.ActorsModalFileNewOrig",
        "node": "",
        "type": "orig",
        "phase": "exec",
        "execution": "",
        "src": "testBrowser1",
        "dst": "[[\"actorjsActorsTest\", \"actorJsHttp\"]]",
        "srv": "",
        "testData": "",
        "verification": ""
      },
      {
        "name": "Actors-global.actorjs.actors.ActorsModalPropertyInter",
        "node": "",
        "type": "inter",
        "phase": "exec",
        "execution": "",
        "src": "",
        "dst": "",
        "srv": "",
        "testData": "[[\"mock-request-name\", \"ActorEditorFileNew\"], [\"mock-response-datas\", [\"TheNewFileOrig.js\"]]]",
        "verification": ""
      }
    ],
    "testDataTestCases": [
      {
        "key": "modal-selector",
        "value": "#modal_file_new",
        "description": ""
      },
      {
        "key": "locate-element-id",
        "value": "actor_file_new",
        "description": ""
      },
      {
        "key": "new-file-name",
        "value": "TheNewFile",
        "description": ""
      }
    ],
    "testDataIteration": [],
    "verificationTestCases": [
      {
        "key": "verify-modal-heading",
        "value": "New Actor File",
        "operation": "",
        "type": "string",
        "description": ""
      }
    ]
  }
}