{
  "name": "VerifyMandatoryEqualArrayIndexNumber002",
  "description": "",
  "status": "visible",
  "tc": {
    "settings": [],
    "actors": [
      {
        "name": "Actors-global.engine.actors.verify.VerifyMandatoryArrayIndexNumberLocal",
        "type": "local",
        "phase": "",
        "execution": "",
        "src": "",
        "dst": "",
        "srv": "",
        "testData": "",
        "verification": ""
      }
    ],
    "testDataTestCases": [
      {
        "key": "mandatory[]",
        "value": "0",
        "description": ""
      },
      {
        "key": "mandatory[]",
        "value": "9",
        "description": ""
      },
      {
        "key": "mandatory[]",
        "value": "8",
        "description": ""
      }
    ],
    "testDataIteration": [],
    "verificationTestCases": [
      {
        "key": "mandatory",
        "value": "[0, 9, 8]",
        "operation": "===",
        "type": "[number]",
        "description": ""
      }
    ]
  }
}