{
  "name": "SocketObjectTcpOrigSutTerm001",
  "description": "",
  "status": "visible",
  "tc": {
    "settings": [],
    "actors": [
      {
        "name": "Actors-global.stack.stacks.socket.object.SocketObjectOrig",
        "type": "orig",
        "phase": "exec",
        "execution": "",
        "src": "testSrc1",
        "dst": "actorSut1",
        "srv": "",
        "testData": "",
        "verification": ""
      },
      {
        "name": "Actors-global.stack.stacks.socket.object.SocketObjectSut",
        "type": "sut",
        "phase": "exec",
        "execution": "",
        "src": "testSrc2",
        "dst": "testSrv2",
        "srv": "actorSut1",
        "testData": "",
        "verification": ""
      },
      {
        "name": "Actors-global.stack.stacks.socket.object.SocketObjectEmptySut",
        "type": "sut",
        "phase": "exec",
        "execution": "",
        "src": "",
        "dst": "",
        "srv": "",
        "testData": "",
        "verification": ""
      },
      {
        "name": "Actors-global.stack.stacks.socket.object.SocketObjectTerm",
        "type": "term",
        "phase": "exec",
        "execution": "",
        "src": "",
        "dst": "",
        "srv": "testSrv2",
        "testData": "",
        "verification": ""
      }
    ],
    "testDataTestCases": [],
    "testDataIteration": [],
    "verificationTestCases": []
  }
}