{
  "name": "ActorsModalFilePropertiesRenameErrorExists",
  "description": "",
  "status": "visible",
  "tc": {
    "settings": [],
    "actors": [
      {
        "name": "Actors-global.actorjs.actors.ActorsModalFilePropertyErrorServerOrig",
        "node": "",
        "type": "orig",
        "phase": "exec",
        "execution": "",
        "src": "testBrowser1",
        "dst": "[[\"actorjsActorsTest\", \"actorJsHttp\"]]",
        "srv": "",
        "testData": "",
        "verification": ""
      },
      {
        "name": "Actors-global.actorjs.actors.ActorsModalPropertyErrorInter",
        "node": "",
        "type": "inter",
        "phase": "exec",
        "execution": "",
        "src": "",
        "dst": "",
        "srv": "",
        "testData": "[[\"mock-request-name\", \"ActorEditorFileRename\"]]",
        "verification": ""
      }
    ],
    "testDataTestCases": [
      {
        "key": "open-folder-path",
        "value": "Actors-global/actorjs-test",
        "description": ""
      },
      {
        "key": "click-file-name",
        "value": "TestLocal.js",
        "description": ""
      },
      {
        "key": "click-file-id",
        "value": "b27f2f47-fd3f-4930-867c-8729cd73ee13",
        "description": ""
      },
      {
        "key": "new-name",
        "value": "TestNewLocal",
        "description": ""
      },
      {
        "key": "error-name",
        "value": "exists",
        "description": ""
      }
    ],
    "testDataIteration": [],
    "verificationTestCases": [
      {
        "key": "verify-modal-heading",
        "value": "File Properties",
        "operation": "",
        "type": "",
        "description": ""
      }
    ]
  }
}