{
  "name": "EngineConnectionShareTcpSetupTaCcIa",
  "description": "",
  "status": "visible",
  "tc": {
    "settings": [],
    "actors": [
      {
        "name": "Actors-global.stack.shared-message-selector.GetImageAndTextOrig",
        "node": "",
        "type": "orig",
        "phase": "exec",
        "execution": "",
        "src": "testSrc1",
        "dst": "testSrv1",
        "srv": "",
        "testData": "[[\"wait-for-setup\", [\"TEXT-ACCEPT\"]]]",
        "verification": ""
      },
      {
        "name": "Actors-global.stack.shared-message-selector.GetImageTerm",
        "node": "",
        "type": "term",
        "phase": "exec",
        "execution": "",
        "src": "",
        "dst": "",
        "srv": "testSrv1",
        "testData": "[[\"wait-for-setup\", [\"TEXT-ACCEPT\", \"CLIENT-CONNECT\"]]]",
        "verification": ""
      },
      {
        "name": "Actors-global.stack.shared-message-selector.GetTextTerm",
        "node": "",
        "type": "term",
        "phase": "exec",
        "execution": "",
        "src": "",
        "dst": "",
        "srv": "testSrv1",
        "testData": "",
        "verification": ""
      }
    ],
    "testDataTestCases": [
      {
        "key": "transport",
        "value": "tcp",
        "description": ""
      }
    ],
    "testDataIteration": [],
    "verificationTestCases": []
  }
}