{
  "name": "SuccessSeveralPostTerm",
  "description": "",
  "status": "visible",
  "tc": {
    "settings": [],
    "actors": [
      {
        "name": "Actors-global.engine.actors.part.PartInitLocal",
        "type": "local",
        "phase": "pre",
        "execution": "",
        "src": "",
        "dst": "",
        "srv": "",
        "testData": "",
        "verification": ""
      },
      {
        "name": "Actors-global.engine.actors.part.success.PostPartSeveralSuccessTerm",
        "type": "term",
        "phase": "",
        "execution": "",
        "src": "",
        "dst": "",
        "srv": "",
        "testData": "",
        "verification": ""
      },
      {
        "name": "Actors-global.engine.actors.part.PartVerifyLocal",
        "type": "local",
        "phase": "post",
        "execution": "",
        "src": "",
        "dst": "",
        "srv": "",
        "testData": "",
        "verification": ""
      }
    ],
    "testDataTestCases": [],
    "testDataIteration": [],
    "verificationTestCases": [
      {
        "key": "execution-order",
        "value": "[\"PostPartSeveralSuccessTerm[1]\", \"SuccessValuePost[1]\", \"SuccessValuePost[2]\", \"SuccessValuePost[3]\", \"SuccessValuePost[4]\"]",
        "operation": "",
        "type": "[string]",
        "description": ""
      }
    ]
  }
}