{
  "name": "SystemsUnderTestModalAddANewSystemUnderTest",
  "description": "",
  "status": "visible",
  "tc": {
    "settings": [],
    "actors": [
      {
        "name": "Actors-global.actorjs.systemsundertest.SystemsUnderTestModalOrig",
        "node": "",
        "type": "orig",
        "phase": "exec",
        "execution": "",
        "src": "testBrowser1",
        "dst": "[[\"actorjsSUTModal\", \"actorJsHttp\"]]",
        "srv": "",
        "testData": "",
        "verification": ""
      }
    ],
    "testDataTestCases": [
      {
        "key": "modal-selector",
        "value": "#modal_abstraction_sut_add",
        "description": ""
      },
      {
        "key": "locate-element-id",
        "value": "sut_add",
        "description": ""
      },
      {
        "key": "close-button-id",
        "value": "abstraction_add_sut_close_button",
        "description": ""
      }
    ],
    "testDataIteration": [],
    "verificationTestCases": [
      {
        "key": "verify-modal-heading",
        "value": "Add a new System Under Test",
        "operation": "",
        "type": "",
        "description": ""
      }
    ]
  }
}