{
  "name": "StacksModalFolderPropertiesCloseButton",
  "description": "",
  "status": "visible",
  "tc": {
    "settings": [],
    "actors": [
      {
        "name": "Actors-global.actorjs.stack.StacksModalFolderOrig",
        "node": "",
        "type": "orig",
        "phase": "exec",
        "execution": "",
        "src": "testBrowser1",
        "dst": "[[\"actorjsStack\", \"actorJsHttp\"]]",
        "srv": "",
        "testData": "",
        "verification": ""
      }
    ],
    "testDataTestCases": [
      {
        "key": "modal-selector",
        "value": "#modal_folder_properties",
        "description": ""
      },
      {
        "key": "locate-element-id",
        "value": "stack_folder_properties",
        "description": ""
      },
      {
        "key": "modal-close-button-id",
        "value": "folder_properties_close_button",
        "description": ""
      }
    ],
    "testDataIteration": [],
    "verificationTestCases": [
      {
        "key": "verify-modal-heading",
        "value": "Folder Properties",
        "operation": "",
        "type": "string",
        "description": ""
      }
    ]
  }
}