{
  "name": "VerifyMandatoryEqualEmptyString002",
  "description": "",
  "status": "visible",
  "tc": {
    "actors": [
      {
        "_defaultValues": [
          [
            "execution",
            null
          ],
          [
            "phase",
            null
          ]
        ],
        "_allowedValues": [
          [
            "type",
            null
          ],
          [
            "phase",
            null
          ]
        ],
        "name": "Actors-global.engine.actors.verify.VerifyMandatoryStringDataOrig",
        "type": "orig",
        "phase": "",
        "address": "",
        "execution": ""
      }
    ],
    "testDataTestCases": [
      {
        "_defaultValues": [],
        "_allowedValues": [],
        "key": "mandatory",
        "value": "",
        "description": ""
      }
    ],
    "verificationTestCases": [
      {
        "_defaultValues": [],
        "_allowedValues": [],
        "key": "mandatory",
        "value": "",
        "operation": "==",
        "type": "",
        "description": ""
      }
    ]
  }
}