{
  "name": "Aaaaaaaaaaa",
  "description": "",
  "status": "visible",
  "ts": {
    "abstractions": [
      {
        "name": "tc.ActorJs.Stacks.StacksLocateStackTestLocal",
        "execution": "",
        "iterationsTs": "",
        "_commentOut_": false
      },
      {
        "name": "tc.ActorJs.Stacks.StacksModalFileNewCloseButton",
        "execution": "",
        "iterationsTs": "",
        "_commentOut_": false
      }
    ]
  }
}