{
  "name": "CIDailyBuild",
  "description": "",
  "status": "visible",
  "ts": {
    "abstractions": [
      {
        "name": "ts.Actor.CI.CIAllLogin",
        "execution": "",
        "iterations": ""
      }
    ]
  }
}