{
  "name": "TestDataDefaultArrayNumbersSuccess0003",
  "description": "",
  "status": "visible",
  "tc": {
    "settings": [],
    "actors": [
      {
        "name": "Actors-global.engine.actors.test-data.TestDataDefaultSuccessLocal",
        "type": "local",
        "phase": "",
        "execution": "",
        "src": "",
        "dst": "",
        "srv": "",
        "testData": ""
      }
    ],
    "testDataTestCases": [
      {
        "key": "method",
        "value": "getTestDataArrayNumbers",
        "description": ""
      },
      {
        "key": "defaultValue",
        "value": "[[1.1, 2.2], [3.3, 4.4]]",
        "description": ""
      },
      {
        "key": "defaultType",
        "value": "string",
        "description": ""
      }
    ],
    "testDataIteration": [],
    "verificationTestCases": [
      {
        "key": "testData[]",
        "value": "[1.1, 2.2]",
        "operation": "",
        "type": "[number]",
        "description": ""
      },
      {
        "key": "testData[]",
        "value": "[3.3, 4.4]",
        "operation": "",
        "type": "[number]",
        "description": ""
      }
    ]
  }
}