{
  "name": "ActorsModalFolderRemoveOrDeleteCloseButton",
  "description": "",
  "status": "visible",
  "tc": {
    "settings": [],
    "actors": [
      {
        "name": "Actors-global.actorjs.actors.ActorsModalFolderOrig",
        "node": "",
        "type": "orig",
        "phase": "exec",
        "execution": "",
        "src": "testBrowser1",
        "dst": "[[\"actorjsActorsTest\", \"actorJsHttp\"]]",
        "srv": "",
        "testData": "",
        "verification": ""
      }
    ],
    "testDataTestCases": [
      {
        "key": "modal-selector",
        "value": "#modal_folder_remove",
        "description": ""
      },
      {
        "key": "locate-element-id",
        "value": "actor_folder_delete",
        "description": ""
      },
      {
        "key": "modal-close-button-id",
        "value": "folder_remove_close_button",
        "description": ""
      }
    ],
    "testDataIteration": [],
    "verificationTestCases": [
      {
        "key": "verify-modal-heading",
        "value": "Remove or Delete Folder",
        "operation": "",
        "type": "",
        "description": ""
      }
    ]
  }
}