{
  "name": "GetBits",
  "description": "",
  "status": "visible",
  "tc": {
    "settings": [],
    "actors": [
      {
        "name": "Actors-global.unit-test.stack-api.GetBitsLocal",
        "node": "",
        "type": "local",
        "phase": "",
        "execution": "",
        "src": "",
        "dst": "",
        "srv": "",
        "testData": "",
        "verification": ""
      }
    ],
    "testDataTestCases": [],
    "testDataIteration": [],
    "verificationTestCases": []
  }
}