{
  "name": "AddressesPositiveAll",
  "description": "",
  "status": "visible",
  "ts": {
    "abstractions": [
      {
        "name": "tc.ActorJs.Addresses.AddressesClientLocateINetwork",
        "execution": "",
        "iterations": ""
      },
      {
        "name": "tc.ActorJs.Addresses.AddressesDstLocateSut",
        "execution": "",
        "iterations": ""
      },
      {
        "name": "tc.ActorJs.Addresses.AddressesIClientLocateSrv",
        "execution": "",
        "iterations": ""
      },
      {
        "name": "tc.ActorJs.Addresses.AddressesINetworkLocateISut",
        "execution": "",
        "iterations": ""
      },
      {
        "name": "tc.ActorJs.Addresses.AddressesIServerLocateIClient",
        "execution": "",
        "iterations": ""
      },
      {
        "name": "tc.ActorJs.Addresses.AddressesISutLocatePorts",
        "execution": "",
        "iterations": ""
      },
      {
        "name": "tc.ActorJs.Addresses.AddressesPortsLocateClient",
        "execution": "",
        "iterations": ""
      },
      {
        "name": "tc.ActorJs.Addresses.AddressesServerLocateDst",
        "execution": "",
        "iterations": ""
      },
      {
        "name": "tc.ActorJs.Addresses.AddressesSrcLocateServer",
        "execution": "",
        "iterations": ""
      },
      {
        "name": "tc.ActorJs.Addresses.AddressesSrvLocateIServer",
        "execution": "",
        "iterations": ""
      },
      {
        "name": "tc.ActorJs.Addresses.AddressesSutLocateSrc",
        "execution": "",
        "iterations": ""
      },
      {
        "name": "tc.ActorJs.Addresses.AddressesSrcMarkup",
        "execution": "",
        "iterations": ""
      },
      {
        "name": "tc.ActorJs.Addresses.AddressesDstMarkup",
        "execution": "",
        "iterations": ""
      },
      {
        "name": "tc.ActorJs.Addresses.AddressesSrvMarkup",
        "execution": "",
        "iterations": ""
      },
      {
        "name": "tc.ActorJs.Addresses.AddressesClientMarkup",
        "execution": "",
        "iterations": ""
      },
      {
        "name": "tc.ActorJs.Addresses.AddressesSutMarkup",
        "execution": "",
        "iterations": ""
      },
      {
        "name": "tc.ActorJs.Addresses.AddressesServerMarkup",
        "execution": "",
        "iterations": ""
      },
      {
        "name": "tc.ActorJs.Addresses.AddressesIClientMarkup",
        "execution": "",
        "iterations": ""
      },
      {
        "name": "tc.ActorJs.Addresses.AddressesISutMarkup",
        "execution": "",
        "iterations": ""
      },
      {
        "name": "tc.ActorJs.Addresses.AddressesIServerMarkup",
        "execution": "",
        "iterations": ""
      },
      {
        "name": "tc.ActorJs.Addresses.AddressesINetworkMarkup",
        "execution": "",
        "iterations": ""
      },
      {
        "name": "tc.ActorJs.Addresses.AddressesPortsMarkup",
        "execution": "",
        "iterations": ""
      }
    ]
  }
}