{
  "name": "TestCasesPositiveAll",
  "description": "",
  "status": "visible",
  "ts": {
    "abstractions": [
      {
        "name": "tc.ActorJs.TestCases.TestCasesAnalyzeLocateSequenceDiagram",
        "execution": "",
        "iterations": ""
      },
      {
        "name": "tc.ActorJs.TestCases.TestCasesDebugLocateAnalyze",
        "execution": "",
        "iterations": ""
      },
      {
        "name": "tc.ActorJs.TestCases.TestCasesDefinitionLocateLog",
        "execution": "",
        "iterations": ""
      },
      {
        "name": "tc.ActorJs.TestCases.TestCasesLogLocateDefinition",
        "execution": "",
        "iterations": ""
      },
      {
        "name": "tc.ActorJs.TestCases.TestCasesSequenceDiagramLocateExecution",
        "execution": "",
        "iterations": ""
      },
      {
        "name": "tc.ActorJs.TestCases.TestCasesSpecificationLocateDebug",
        "execution": "",
        "iterations": ""
      },
      {
        "name": "tc.ActorJs.TestCases.TestCasesExecutionLocateSpecification",
        "execution": "",
        "iterations": ""
      },
      {
        "name": "tc.ActorJs.TestCases.TestCasesAddFutModal",
        "execution": "",
        "iterations": ""
      },
      {
        "name": "tc.ActorJs.TestCases.TestCasesAddSutModal",
        "execution": "",
        "iterations": ""
      },
      {
        "name": "tc.ActorJs.TestCases.TestCasesAddTcModal",
        "execution": "",
        "iterations": ""
      },
      {
        "name": "tc.ActorJs.TestCases.TestCasesNavigation",
        "execution": "",
        "iterations": ""
      }
    ]
  }
}