{
  "name": "StartLocateImage",
  "description": "",
  "status": "visible",
  "tc": {
    "settings": [],
    "actors": [
      {
        "name": "Actors-global.actorjs.start.StartAnchorLocateOrig",
        "node": "",
        "type": "orig",
        "phase": "exec",
        "execution": "",
        "src": "testBrowser1",
        "dst": "[[\"actorjsStart\", \"actorJsHttp\"]]",
        "srv": "",
        "testData": "",
        "verification": ""
      }
    ],
    "testDataTestCases": [
      {
        "key": "locate-anchor",
        "value": "Image",
        "description": ""
      },
      {
        "key": "verifying-id",
        "value": "true",
        "description": ""
      },
      {
        "key": "verifying-code",
        "value": "true",
        "description": ""
      },
      {
        "key": "verify-code",
        "value": "Image",
        "description": ""
      },
      {
        "key": "verify-id",
        "value": "content_image_tab",
        "description": ""
      }
    ],
    "testDataIteration": [],
    "verificationTestCases": [
      {
        "key": "verification-code",
        "value": "Image",
        "operation": "",
        "type": "",
        "description": ""
      },
      {
        "key": "verification-id",
        "value": "content_image_tab",
        "operation": "",
        "type": "",
        "description": ""
      }
    ]
  }
}