{
  "name": "LoginReportLocateLogical",
  "description": "",
  "status": "visible",
  "tc": {
    "settings": [],
    "actors": [
      {
        "name": "Actors-global.actorjs.login.LoginLocateOrig",
        "node": "",
        "type": "orig",
        "phase": "exec",
        "execution": "",
        "src": "testBrowser1",
        "dst": "[[\"actorjsLoginReport\",\"actorJsHttp\"]]",
        "srv": "",
        "testData": "",
        "verification": ""
      }
    ],
    "testDataTestCases": [
      {
        "key": "tab-id",
        "value": "stage_logical_tab",
        "description": ""
      },
      {
        "key": "tab-href",
        "value": "logical",
        "description": ""
      }
    ],
    "testDataIteration": [],
    "verificationTestCases": []
  }
}