{
  "name": "FailurePreCondInitClientPrePendingFirst",
  "description": "",
  "status": "visible",
  "tc": {
    "settings": [
      {
        "preResult": "failure",
        "execResult": "none",
        "postResult": "n_exec"
      }
    ],
    "actors": [
      {
        "name": "Actors-global.engine.actors.empty.EmptyVerifyCondActorStatesInitLocal",
        "type": "local",
        "phase": "pre",
        "execution": "",
        "src": "",
        "dst": "",
        "srv": "",
        "testData": ""
      },
      {
        "name": "Actors-global.engine.actors.failure.FailureCond",
        "type": "cond",
        "phase": "pre, post",
        "execution": "",
        "src": "",
        "dst": "",
        "srv": "",
        "testData": ""
      },
      {
        "name": "Actors-global.engine.actors.failure.FailureCond",
        "type": "cond",
        "phase": "pre, post",
        "execution": "parallel",
        "src": "",
        "dst": "",
        "srv": "",
        "testData": ""
      },
      {
        "name": "Actors-global.engine.actors.failure.FailureCond",
        "type": "cond",
        "phase": "pre, post",
        "execution": "parallel",
        "src": "",
        "dst": "",
        "srv": "",
        "testData": ""
      },
      {
        "name": "Actors-global.engine.actors.empty.EmptyVerifyCondActorStatesLocal",
        "type": "local",
        "phase": "post",
        "execution": "",
        "src": "",
        "dst": "",
        "srv": "",
        "testData": ""
      }
    ],
    "testDataTestCases": [
      {
        "key": "failState",
        "value": "initClientPre",
        "description": ""
      },
      {
        "key": "pendingState",
        "value": "initClientPre",
        "description": ""
      },
      {
        "key": "failIndices",
        "value": "[1]",
        "description": ""
      }
    ],
    "testDataIteration": [],
    "verificationTestCases": [
      {
        "key": "stateControl[]",
        "value": "[0, 0, 0, 0, 0]",
        "operation": "",
        "type": "[number]",
        "description": ""
      },
      {
        "key": "stateControl[]",
        "value": "[1, 0, 1, 0, 0, 0, 0, 0, 0]",
        "operation": "",
        "type": "[number]",
        "description": ""
      },
      {
        "key": "stateControl[]",
        "value": "[1, 0, 0, 0, 0, 0, 0, 0, 0]",
        "operation": "",
        "type": "[number]",
        "description": ""
      },
      {
        "key": "stateControl[]",
        "value": "[1, 0, 0, 0, 0, 0, 0, 0, 0]",
        "operation": "",
        "type": "[number]",
        "description": ""
      },
      {
        "key": "stateResult[]",
        "value": "[\"Success\", \"n/a\", \"Failure\", \"n_exec\", \"n_exec\"]",
        "operation": "",
        "type": "[string]",
        "description": ""
      },
      {
        "key": "stateResult[]",
        "value": "[\"Success\", \"n/a\", \"Interrupt\", \"n_exec\", \"n_exec\"]",
        "operation": "",
        "type": "[string]",
        "description": ""
      },
      {
        "key": "stateResult[]",
        "value": "[\"Success\", \"n/a\", \"Interrupt\", \"n_exec\", \"n_exec\"]",
        "operation": "",
        "type": "[string]",
        "description": ""
      },
      {
        "key": "stateResult[]",
        "value": "[\"n/a\", \"n/a\", \"n_exec\", \"n_exec\", \"n_exec\"]",
        "operation": "",
        "type": "[string]",
        "description": ""
      },
      {
        "key": "stateResult[]",
        "value": "[\"n/a\", \"n/a\", \"n_exec\", \"n_exec\", \"n_exec\"]",
        "operation": "",
        "type": "[string]",
        "description": ""
      },
      {
        "key": "stateResult[]",
        "value": "[\"n/a\", \"n/a\", \"n_exec\", \"n_exec\", \"n_exec\"]",
        "operation": "",
        "type": "[string]",
        "description": ""
      }
    ]
  }
}