{
  "name": "AddressesISutMarkup",
  "description": "",
  "status": "visible",
  "tc": {
    "settings": [],
    "actors": [
      {
        "name": "Actors-global.actorjs.addresses.AddressesMarkupOrig",
        "node": "",
        "type": "orig",
        "phase": "exec",
        "execution": "",
        "src": "testBrowser1",
        "dst": "[[\"actorjsAddressesISut\",\"actorJsHttp\"]]",
        "srv": "",
        "testData": "",
        "verification": ""
      }
    ],
    "testDataTestCases": [
      {
        "key": "locate-element-id",
        "value": "addresses_markup_open",
        "description": ""
      },
      {
        "key": "tab-id",
        "value": "addresses_sut_interface_tab",
        "description": ""
      },
      {
        "key": "close-button-id",
        "value": "addresses_markup_cancel",
        "description": ""
      }
    ],
    "testDataIteration": [],
    "verificationTestCases": [
      {
        "key": "verification-code",
        "value": "Address - Markup",
        "operation": "",
        "type": "",
        "description": ""
      }
    ]
  }
}