{
  "name": "DemoMobileBrowsingImagePng",
  "description": "",
  "status": "visible",
  "tc": {
    "settings": [],
    "actors": [
      {
        "name": "Actors-global.demo.stack.protocols.DemoMobileLoginOrig",
        "node": "",
        "type": "orig",
        "phase": "exec",
        "execution": "serial",
        "src": "testSrc1",
        "dst": "HssPxy",
        "srv": "",
        "testData": "",
        "verification": ""
      },
      {
        "name": "Actors-global.demo.stack.protocols.DemoMobileGetImageOrig",
        "node": "",
        "type": "orig",
        "phase": "exec",
        "execution": "parallel",
        "src": "testSrc1",
        "dst": "WwwPxy",
        "srv": "",
        "testData": "",
        "verification": ""
      },
      {
        "name": "Actors-global.demo.stack.protocols.DemoSutProxy",
        "node": "",
        "type": "proxy",
        "phase": "exec",
        "execution": "parallel",
        "src": "[\"testSrc2\", \"testSrc2\", \"testSrc2\"]",
        "dst": "[\"HssSrv\", \"RightsSrv\", \"WwwSrv\"]",
        "srv": "[\"HssPxy\", \"WwwPxy\"]",
        "testData": "",
        "verification": ""
      },
      {
        "name": "Actors-global.demo.stack.protocols.DemoHssLoginTerm",
        "node": "",
        "type": "term",
        "phase": "exec",
        "execution": "",
        "src": "",
        "dst": "",
        "srv": "HssSrv",
        "testData": "",
        "verification": ""
      },
      {
        "name": "Actors-global.demo.stack.protocols.DemoRightsTerm",
        "node": "",
        "type": "term",
        "phase": "exec",
        "execution": "",
        "src": "",
        "dst": "",
        "srv": "RightsSrv",
        "testData": "",
        "verification": ""
      },
      {
        "name": "Actors-global.demo.stack.protocols.DemoWwwGetImageTerm",
        "node": "",
        "type": "term",
        "phase": "exec",
        "execution": "",
        "src": "",
        "dst": "",
        "srv": "WwwSrv",
        "testData": "",
        "verification": ""
      }
    ],
    "testDataTestCases": [
      {
        "key": "request-uri",
        "value": "image.png",
        "description": ""
      },
      {
        "key": "accept",
        "value": "image/png",
        "description": ""
      },
      {
        "key": "content-name",
        "value": "login_png",
        "description": ""
      }
    ],
    "testDataIteration": [],
    "verificationTestCases": [
      {
        "key": "content-type",
        "value": "image/png",
        "operation": "",
        "type": "",
        "description": ""
      }
    ]
  }
}