{
  "name": "DocActorApiClientStackCreateConnectionSingleUdp",
  "description": "",
  "status": "visible",
  "tc": {
    "settings": [],
    "actors": [
      {
        "name": "Actors-global.doc.clientStack.ClientStackSingleUdpOrig",
        "type": "orig",
        "phase": "",
        "execution": "",
        "src": "testSrc1",
        "dst": "testSrv1",
        "srv": "",
        "testData": "",
        "verification": ""
      },
      {
        "name": "Actors-global.doc.clientStack.ClientStackSingleUdpTerm",
        "type": "term",
        "phase": "",
        "execution": "",
        "src": "",
        "dst": "",
        "srv": "testSrv1",
        "testData": "",
        "verification": ""
      }
    ],
    "testDataTestCases": [],
    "testDataIteration": [],
    "verificationTestCases": []
  }
}