{
  "name": "DocActorApiVerifyMandatoryDSuccess",
  "description": "",
  "status": "visible",
  "tc": {
    "settings": [],
    "actors": [
      {
        "name": "Actors-global.doc.verificationData.verifyMandatory.VerifyMandatoryDSuccessLocal",
        "type": "local",
        "phase": "exec",
        "execution": "",
        "src": "",
        "dst": "",
        "srv": "",
        "testData": "",
        "verification": ""
      }
    ],
    "testDataTestCases": [],
    "testDataIteration": [],
    "verificationTestCases": [
      {
        "key": "demoKey1",
        "value": "Hello",
        "operation": "",
        "type": "",
        "description": ""
      },
      {
        "key": "demoKey2",
        "value": "Hi",
        "operation": "",
        "type": "",
        "description": ""
      },
      {
        "key": "demoKey3",
        "value": "33.3",
        "operation": "==",
        "type": "number",
        "description": ""
      },
      {
        "key": "demoKey4",
        "value": "22.2",
        "operation": ">",
        "type": "number",
        "description": ""
      },
      {
        "key": "demoKey5",
        "value": "44.4",
        "operation": "",
        "type": "number",
        "description": ""
      },
      {
        "key": "demoKey6",
        "value": "44.4",
        "operation": "==",
        "type": "",
        "description": ""
      },
      {
        "key": "demoKey7",
        "value": "false",
        "operation": "",
        "type": "boolean",
        "description": ""
      },
      {
        "key": "demoKey8",
        "value": "true",
        "operation": "",
        "type": "boolean",
        "description": ""
      }
    ]
  }
}