{
  "name": "DemoBasic",
  "description": "",
  "status": "visible",
  "ts": {
    "abstractions": [
      {
        "name": "tc.Actor.Demo.DemoDelay001",
        "execution": "",
        "iterationsTs": "",
        "_commentOut_": false
      },
      {
        "name": "tc.Actor.Demo.DemoDelay002",
        "execution": "",
        "iterationsTs": "",
        "_commentOut_": false
      },
      {
        "name": "tc.Actor.Demo.DemoLog001",
        "execution": "",
        "iterationsTs": "",
        "_commentOut_": false
      },
      {
        "name": "tc.Actor.Demo.DemoLog001",
        "execution": "",
        "iterationsTs": "",
        "_commentOut_": false
      },
      {
        "name": "tc.Actor.Demo.DemoPhases001",
        "execution": "",
        "iterationsTs": "",
        "_commentOut_": false
      },
      {
        "name": "tc.Actor.Demo.DemoPhases002",
        "execution": "",
        "iterationsTs": "",
        "_commentOut_": false
      },
      {
        "name": "tc.Actor.Demo.DemoPhases003",
        "execution": "",
        "iterationsTs": "",
        "_commentOut_": false
      },
      {
        "name": "tc.Actor.Demo.DemoPhasesProxy001",
        "execution": "",
        "iterationsTs": "",
        "_commentOut_": false
      },
      {
        "name": "tc.Actor.Demo.DemoTestData001",
        "execution": "",
        "iterationsTs": "",
        "_commentOut_": false
      }
    ]
  }
}