{
  "name": "StacksPositiveAll",
  "description": "",
  "status": "visible",
  "ts": {
    "abstractions": [
      {
        "name": "tc.ActorJs.Stacks.StacksLocateStackTestLocal",
        "execution": "",
        "iterationsTs": "",
        "_commentOut_": false
      },
      {
        "name": "tc.ActorJs.Stacks.StacksModalFileNewCloseButton",
        "execution": "",
        "iterationsTs": "",
        "_commentOut_": false
      },
      {
        "name": "tc.ActorJs.Stacks.StacksModalFileNewCloseKeyboard",
        "execution": "",
        "iterationsTs": "",
        "_commentOut_": false
      },
      {
        "name": "tc.ActorJs.Stacks.StacksModalFileNew",
        "execution": "",
        "iterationsTs": "",
        "_commentOut_": false
      },
      {
        "name": "tc.ActorJs.Stacks.StacksModalFileAddCloseButton",
        "execution": "",
        "iterationsTs": "",
        "_commentOut_": false
      },
      {
        "name": "tc.ActorJs.Stacks.StacksModalFileAddCloseKeyboard",
        "execution": "",
        "iterationsTs": "",
        "_commentOut_": false
      },
      {
        "name": "tc.ActorJs.Stacks.StacksModalFilePropertiesCloseButton",
        "execution": "",
        "iterationsTs": "",
        "_commentOut_": false
      },
      {
        "name": "tc.ActorJs.Stacks.StacksModalFilePropertiesCloseKeyboard",
        "execution": "",
        "iterationsTs": "",
        "_commentOut_": false
      },
      {
        "name": "tc.ActorJs.Stacks.StacksModalFilePropertiesRename",
        "execution": "",
        "iterationsTs": "",
        "_commentOut_": false
      },
      {
        "name": "tc.ActorJs.Stacks.StacksModalFileRemoveOrDeleteCloseButton",
        "execution": "",
        "iterationsTs": "",
        "_commentOut_": false
      },
      {
        "name": "tc.ActorJs.Stacks.StacksModalFileRemoveOrDeleteCloseKeyboard",
        "execution": "",
        "iterationsTs": "",
        "_commentOut_": false
      },
      {
        "name": "tc.ActorJs.Stacks.StacksModalFolderNewCloseButton",
        "execution": "",
        "iterationsTs": "",
        "_commentOut_": false
      },
      {
        "name": "tc.ActorJs.Stacks.StacksModalFolderNewCloseKeyboard",
        "execution": "",
        "iterationsTs": "",
        "_commentOut_": false
      },
      {
        "name": "tc.ActorJs.Stacks.StacksModalFolderAddCloseButton",
        "execution": "",
        "iterationsTs": "",
        "_commentOut_": false
      },
      {
        "name": "tc.ActorJs.Stacks.StacksModalFolderAddCloseKeyboard",
        "execution": "",
        "iterationsTs": "",
        "_commentOut_": false
      },
      {
        "name": "tc.ActorJs.Stacks.StacksModalFolderPropertiesCloseButton",
        "execution": "",
        "iterationsTs": "",
        "_commentOut_": false
      },
      {
        "name": "tc.ActorJs.Stacks.StacksModalFolderPropertiesCloseKeyboard",
        "execution": "",
        "iterationsTs": "",
        "_commentOut_": false
      },
      {
        "name": "tc.ActorJs.Stacks.StacksModalFolderPropertiesRename",
        "execution": "",
        "iterationsTs": "",
        "_commentOut_": false
      },
      {
        "name": "tc.ActorJs.Stacks.StacksModalFolderRemoveOrDeleteCloseButton",
        "execution": "",
        "iterationsTs": "",
        "_commentOut_": false
      },
      {
        "name": "tc.ActorJs.Stacks.StacksModalFolderRemoveOrDeleteCloseKeyboard",
        "execution": "",
        "iterationsTs": "",
        "_commentOut_": false
      },
      {
        "name": "tc.ActorJs.Stacks.StacksModalWizardAdd",
        "execution": "",
        "iterationsTs": "",
        "_commentOut_": true
      }
    ]
  }
}