{
  "name": "VerifyValueEqualNumber005",
  "description": "",
  "status": "visible",
  "tc": {
    "settings": [],
    "actors": [
      {
        "name": "Actors-global.engine.actors.verify.VerifyValueNumberLocal",
        "type": "local",
        "phase": "",
        "execution": "",
        "src": "",
        "dst": "",
        "srv": "",
        "testData": "",
        "verification": ""
      }
    ],
    "testDataTestCases": [
      {
        "key": "expected",
        "value": "-0",
        "description": ""
      },
      {
        "key": "actual",
        "value": "0",
        "description": ""
      }
    ],
    "testDataIteration": [],
    "verificationTestCases": []
  }
}