{
  "name": "StackSocketReceiveClientSendBefore",
  "description": "",
  "status": "visible",
  "tc": {
    "settings": [],
    "actors": [
      {
        "name": "Actors-global.stack.stacks.socket.SocketReceiveOrig",
        "node": "",
        "type": "orig",
        "phase": "exec",
        "execution": "",
        "src": "",
        "dst": "",
        "srv": "",
        "testData": "",
        "verification": ""
      },
      {
        "name": "Actors-global.stack.stacks.socket.SocketReceiveTerm",
        "node": "",
        "type": "term",
        "phase": "exec",
        "execution": "",
        "src": "",
        "dst": "",
        "srv": "",
        "testData": "",
        "verification": ""
      }
    ],
    "testDataTestCases": [
      {
        "key": "sending-side",
        "value": "client",
        "description": ""
      },
      {
        "key": "what-to-send",
        "value": "BEFORE",
        "description": ""
      }
    ],
    "testDataIteration": [],
    "verificationTestCases": []
  }
}