{
  "name": "GlobalTestDataSystemLocateEnvironment",
  "description": "",
  "status": "visible",
  "tc": {
    "settings": [],
    "actors": [
      {
        "name": "Actors-global.actorjs.globaltestdata.GlobalTestDataLocateOrig",
        "node": "",
        "type": "orig",
        "phase": "",
        "execution": "",
        "src": "testBrowser1",
        "dst": "[[\"actorjsTestDataSystem\", \"actorJsHttp\"]]",
        "srv": "",
        "testData": "",
        "verification": ""
      }
    ],
    "testDataTestCases": [
      {
        "key": "tab-id",
        "value": "global_test_data_environment",
        "description": ""
      },
      {
        "key": "tab-href",
        "value": "environment",
        "description": ""
      }
    ],
    "testDataIteration": [],
    "verificationTestCases": []
  }
}