{
  "name": "ContentAll",
  "description": "",
  "status": "visible",
  "ts": {
    "abstractions": [
      {
        "name": "ts.ActorJs.Content.ContentMiscellaneousAll",
        "execution": "",
        "iterations": ""
      },
      {
        "name": "ts.ActorJs.Content.ContentPositiveAll",
        "execution": "",
        "iterations": ""
      },
      {
        "name": "ts.ActorJs.Content.ContentNegativeAll",
        "execution": "",
        "iterations": ""
      }
    ]
  }
}