{
  "name": "DocActorApiGetTestDataArrayStringsC",
  "description": "",
  "status": "visible",
  "tc": {
    "settings": [],
    "actors": [
      {
        "name": "Actors-global.doc.testData.getStrings.GetTestDataArrayStringsCOrig",
        "type": "orig",
        "phase": "exec",
        "execution": "",
        "src": "",
        "dst": "",
        "srv": "",
        "testData": "",
        "verification": ""
      }
    ],
    "testDataTestCases": [
      {
        "key": "demoKey1[]",
        "value": "[\"Hi\", \"there\"]",
        "description": ""
      },
      {
        "key": "demoKey1[]",
        "value": "[\"How\", \"are\", \"you\"]",
        "description": ""
      },
      {
        "key": "demoKey2",
        "value": "[[\"Good evening\", \"sir\"], [\"Is\", \"all\", \"well\"]]",
        "description": ""
      },
      {
        "key": "demoKeyObject",
        "value": "LADY",
        "description": ""
      }
    ],
    "testDataIteration": [],
    "verificationTestCases": []
  }
}