{
  "name": "CIOnlineAll",
  "description": "",
  "status": "visible",
  "ts": {
    "abstractions": [
      {
        "name": "ts.ActorJs.CI.CIAllLogin",
        "execution": "",
        "iterations": ""
      },
      {
        "name": "ts.ActorJsRest.CI.CIAllLogin",
        "execution": "",
        "iterations": ""
      }
    ]
  }
}