{
  "name": "TestCasesPositiveAll",
  "description": "",
  "status": "visible",
  "ts": {
    "abstractions": [
      {
        "name": "tc.ActorJsRest.TestCases.TestCaseExecutionStart",
        "execution": "",
        "iterationsTs": "",
        "_commentOut_": true
      }
    ]
  }
}