{
  "name": "DemoLog001",
  "description": "",
  "status": "visible",
  "tc": {
    "settings": [],
    "actors": [
      {
        "name": "Actors-global.demo.log.DemoLogLocal",
        "node": "",
        "type": "local",
        "phase": "exec",
        "execution": "",
        "src": "",
        "dst": "",
        "srv": "",
        "testData": "",
        "verification": ""
      }
    ],
    "testDataTestCases": [
      {
        "key": "log-settings-destination",
        "value": "client",
        "description": ""
      },
      {
        "key": "log-type-engine",
        "value": "all",
        "description": ""
      },
      {
        "key": "log-type-debug",
        "value": "all",
        "description": ""
      },
      {
        "key": "log-type-error",
        "value": "all",
        "description": ""
      },
      {
        "key": "log-type-warning",
        "value": "all",
        "description": ""
      },
      {
        "key": "log-type-ip",
        "value": "all",
        "description": ""
      },
      {
        "key": "log-type-gui",
        "value": "all",
        "description": ""
      },
      {
        "key": "log-type-success",
        "value": "all",
        "description": ""
      },
      {
        "key": "log-type-failure",
        "value": "all",
        "description": ""
      },
      {
        "key": "log-type-test-data",
        "value": "all",
        "description": ""
      },
      {
        "key": "log-type-browser-log",
        "value": "all",
        "description": ""
      },
      {
        "key": "log-type-browser-err",
        "value": "all",
        "description": ""
      }
    ],
    "testDataIteration": [],
    "verificationTestCases": []
  }
}