{
  "name": "CIAllLogin",
  "description": "",
  "status": "visible",
  "ts": {
    "abstractions": [
      {
        "name": "stage[\"actor\", \"actor\", \"ActorDemo\"]",
        "execution": "",
        "iterationsTs": "",
        "_commentOut_": false
      },
      {
        "name": "ts.ActorDemo.CI.CIAll",
        "execution": "",
        "iterationsTs": "",
        "_commentOut_": false
      }
    ]
  }
}