{
  "name": "StackConnectionWorkerOnConnectedError",
  "description": "",
  "status": "visible",
  "tc": {
    "settings": [
      {
        "preResult": "none",
        "execResult": "error",
        "postResult": "none"
      }
    ],
    "actors": [
      {
        "name": "Actors-global.stack.connection.ConnectionWorkerOnConnectedErrorOrig",
        "node": "",
        "type": "orig",
        "phase": "exec",
        "execution": "",
        "src": "testSrc1",
        "dst": "testSrv1",
        "srv": "",
        "testData": "",
        "verification": ""
      },
      {
        "name": "Actors-global.stack.connection.ConnectionWorkerTerm",
        "node": "",
        "type": "term",
        "phase": "exec",
        "execution": "",
        "src": "",
        "dst": "",
        "srv": "testSrv1",
        "testData": "",
        "verification": ""
      }
    ],
    "testDataTestCases": [],
    "testDataIteration": [],
    "verificationTestCases": []
  }
}