{
  "name": "ContentByNameImageJpeg",
  "description": "",
  "status": "visible",
  "tc": {
    "settings": [],
    "actors": [
      {
        "name": "Actors-global.engine.actors.test-data.ContentByNameLocal",
        "node": "",
        "type": "local",
        "phase": "",
        "execution": "",
        "src": "",
        "dst": "",
        "srv": "",
        "testData": "",
        "verification": ""
      }
    ],
    "testDataTestCases": [
      {
        "key": "content-name",
        "value": "skates",
        "description": ""
      }
    ],
    "testDataIteration": [],
    "verificationTestCases": []
  }
}