{
  "name": "VerifyMandatoryArrayNumbersIndex002",
  "description": "",
  "status": "visible",
  "tc": {
    "settings": [
      {
        "preResult": "none",
        "execResult": "failure",
        "postResult": "none"
      }
    ],
    "actors": [
      {
        "name": "Actors-global.engine.actors.verify.mandatory.VerifyMandatoryArrayNumbersIndexLocal",
        "type": "local",
        "phase": "exec",
        "execution": "",
        "src": "",
        "dst": "",
        "srv": "",
        "testData": "",
        "verification": ""
      }
    ],
    "testDataTestCases": [
      {
        "key": "mandatory",
        "value": "[[1, 2, 3], [4, 0, 6], [7, 8, 9]]",
        "description": ""
      }
    ],
    "testDataIteration": [],
    "verificationTestCases": [
      {
        "key": "mandatory",
        "value": "[[1, 2, 3], [4, 5, 6], [7, 8, 9]]",
        "operation": "",
        "type": "[[number]]",
        "description": ""
      }
    ]
  }
}