{
  "name": "CIOfflineAll",
  "description": "",
  "status": "visible",
  "ts": {
    "abstractions": [
      {
        "name": "ts.ActorUnitTest.CI.CIAllLogin",
        "execution": "",
        "iterations": "",
        "_commentOut_": false
      },
      {
        "name": "ts.Actor.CI.CIAllLogin",
        "execution": "",
        "iterations": "",
        "_commentOut_": false
      },
      {
        "name": "ts.ActorSut.CI.CIAllLogin",
        "execution": "",
        "iterations": "",
        "_commentOut_": false
      }
    ]
  }
}