{
  "name": "UnitTestTaskRunnerParallelAnonymousExecute",
  "description": "",
  "status": "visible",
  "tc": {
    "settings": [],
    "actors": [
      {
        "name": "Actors-global.unit-test.task-runner.parallel.ParallelAnonymousExecuteLocal",
        "node": "",
        "type": "local",
        "phase": "exec",
        "execution": "",
        "src": "",
        "dst": "",
        "srv": "",
        "testData": "",
        "verification": ""
      }
    ],
    "testDataTestCases": [
      {
        "key": "task-names[]",
        "value": "first",
        "description": ""
      }
    ],
    "testDataIteration": [],
    "verificationTestCases": []
  }
}